IS415-GAA - Take-Home Exercise 1: Application of Spatial Point Patterns Analysis to discover the geographical distribution of Grab hailing services in Singapore
…
dplyr - useful for data manipulation, providing functions for filtering, summarizing, and transforming data frames

arrow - enables efficient data interchange between different systems and languages by standardizing how data is represented in memory

pacman::p_load(sf, spatstat, raster, maptools, tmap, tidyverse, arrow)

Aspatial Data

Grab-Posisi - a dataset of Grab taxi location points

grab <- open_dataset("data/aspatial/GrabPosisi") |> as_tibble()
#grab <- read_parquet("data/aspatial/GrabPosisi/part-00000-8bbff892-97d2-4011-9961-703e38972569.c000.snappy.parquet")
grab

# A tibble: 30,329,685 × 9
   trj_id driving_mode osname pingtimestamp rawlat rawlng speed bearing accuracy
   <chr>  <chr>        <chr>          <int>  <dbl>  <dbl> <dbl>   <int>    <dbl>
 1 70014  car          andro…    1554943236   1.34   104. 18.9      248     3.9 
 2 73573  car          andro…    1555582623   1.32   104. 17.7       44     4   
 3 75567  car          andro…    1555141026   1.33   104. 14.0       34     3.9 
 4 1410   car          andro…    1555731693   1.26   104. 13.0      181     4   
 5 4354   car          andro…    1555584497   1.28   104. 14.8       93     3.9 
 6 32630  car          andro…    1555395258   1.30   104. 23.2       73     3.9 
 7 64631  car          andro…    1554768955   1.35   104.  0         82     3   
 8 76484  car          andro…    1554783532   1.34   104.  3.98     321     3.65
 9 65747  car          ios       1554898418   1.29   104.  4.68     324    50   
10 60478  car          ios       1555593189   1.33   104. 16.5       31    16   
# ℹ 30,329,675 more rows
…
Now we find the starting location by arranging the pingtimestamp in an ascending order for each trip and get the earliest time.

start_grab <- grab %>%
  group_by(trj_id) %>% # group based on the trips
  arrange(pingtimestamp) %>% # arrange the time in ascending order
  filter(row_number() == 1) %>% # choose the first timing
  mutate(weekday = wday(pingtimestamp,
                        label = TRUE,
                        abbr = TRUE),
         start_hr = hour(pingtimestamp),
         day = factor(mday(pingtimestamp)))

start_grab

# A tibble: 28,000 × 12
# Groups:   trj_id [28,000]
   trj_id driving_mode osname  pingtimestamp       rawlat rawlng  speed bearing
   <chr>  <chr>        <chr>   <dttm>               <dbl>  <dbl>  <dbl>   <int>
 1 70895  car          android 2019-04-08 00:09:26   1.38   104.  9.95      111
 2 21926  car          android 2019-04-08 00:09:48   1.29   104. 11.0        75
 3 47498  car          ios     2019-04-08 00:09:50   1.38   104. 18.6       307
 4 18103  car          android 2019-04-08 00:09:55   1.45   104.  0.404     159
 5 41322  car          android 2019-04-08 00:09:57   1.28   104. 17.9       232
 6 64813  car          ios     2019-04-08 00:10:03   1.31   104. 17.1       106
 7 81518  car          ios     2019-04-08 00:10:14   1.31   104.  6.24      213
 8 66542  car          android 2019-04-08 00:11:17   1.36   104.  9.11      179
 9 25201  car          ios     2019-04-08 00:12:05   1.37   104. 12.0       211
10 82401  car          android 2019-04-08 00:12:11   1.30   104. 10.6       107
# ℹ 27,990 more rows
# ℹ 4 more variables: accuracy <dbl>, weekday <ord>, start_hr <int>, day <fct>
…
We also need to find the ending location by arranging the pingtimestamp in an descending order for each trip and get the latest time.

end_grab <- grab %>%
  group_by(trj_id) %>% # group based on the trips
  arrange(desc(pingtimestamp)) %>% # arrange the time in descending order
  filter(row_number() == 1) %>% # choose the first timing
  mutate(weekday = wday(pingtimestamp,
                        label = TRUE,
                        abbr = TRUE),
         start_hr = hour(pingtimestamp),
         day = factor(mday(pingtimestamp)))

end_grab

# A tibble: 28,000 × 12
# Groups:   trj_id [28,000]
   trj_id driving_mode osname  pingtimestamp       rawlat rawlng  speed bearing
   <chr>  <chr>        <chr>   <dttm>               <dbl>  <dbl>  <dbl>   <int>
 1 81574  car          ios     2019-04-21 23:56:49   1.34   104. 15.3       103
 2 54687  car          android 2019-04-21 23:56:46   1.44   104.  8.15      299
 3 17190  car          android 2019-04-21 23:56:36   1.34   104. 12.4       202
 4 13793  car          android 2019-04-21 23:56:30   1.32   104.  6.47      170
 5 39014  car          ios     2019-04-21 23:56:27   1.33   104.  3.59      169
 6 41170  car          ios     2019-04-21 23:56:13   1.32   104. 13.1        71
 7 64519  car          ios     2019-04-21 23:55:49   1.43   104. 14.3       239
 8 70461  car          ios     2019-04-21 23:55:32   1.29   104.  0.970      51
 9 41154  car          ios     2019-04-21 23:55:10   1.32   104. 10.8       118
10 65488  car          ios     2019-04-21 23:54:47   1.38   104.  0         244
# ℹ 27,990 more rows
# ℹ 4 more variables: accuracy <dbl>, weekday <ord>, start_hr <int>, day <fct>
…
